v 20211219 2
C 40000 40000 0 0 0 title-B.sym
C 47600 46100 1 0 0 nano.sym
{
T 49300 50600 5 10 1 1 0 3 1
refdes=U1
T 47600 46100 5 10 0 0 0 0 1
footprint=nano-header
}
N 49800 50100 50300 50100 4
C 50200 49800 1 0 0 gnd-1.sym
C 50200 46800 1 270 0 capacitor-4.sym
{
T 51300 46600 5 10 0 0 270 0 1
device=POLARIZED_CAPACITOR
T 50700 46600 5 10 1 1 270 0 1
refdes=C6
T 50900 46600 5 10 0 0 270 0 1
symversion=0.1
T 50600 46000 5 10 1 1 0 0 1
value=1uF
T 50200 46800 5 10 0 0 0 0 1
footprint=1206
}
N 50400 46800 49800 46800 4
C 50300 45600 1 0 0 gnd-1.sym
C 51300 44400 1 0 0 dual-opamp-1.sym
{
T 50800 44100 5 10 0 1 0 0 1
device=DUAL_OPAMP
T 52000 44300 5 10 1 1 0 0 1
refdes=U2
T 51500 46300 5 10 0 0 0 0 1
footprint=SO8
T 51500 46900 5 10 0 0 0 0 1
symversion=0.2
T 50800 44100 5 10 1 1 0 0 1
value=MCP6002
}
C 52900 42900 1 0 0 dual-opamp-1.sym
{
T 53100 45200 5 10 0 0 0 0 1
device=DUAL_OPAMP
T 53600 42800 5 10 1 1 0 0 1
refdes=U2
T 53100 44800 5 10 0 0 0 0 1
footprint=SO8
T 53100 45400 5 10 0 0 0 0 1
symversion=0.2
T 52900 42900 5 10 0 0 0 0 1
slot=2
}
C 49900 43700 1 90 0 capacitor-1.sym
{
T 49200 43900 5 10 0 0 90 0 1
device=CAPACITOR
T 49400 43900 5 10 1 1 90 0 1
refdes=C3
T 49000 43900 5 10 0 0 90 0 1
symversion=0.1
T 49900 43700 5 10 0 0 0 0 1
footprint=1206
T 49800 43800 5 10 1 1 0 0 1
value=330nF
}
C 49600 43400 1 0 0 gnd-1.sym
C 48500 44500 1 0 0 resistor-2.sym
{
T 48900 44850 5 10 0 0 0 0 1
device=RESISTOR
T 48700 44800 5 10 1 1 0 0 1
refdes=R4
T 48500 44500 5 10 0 0 270 0 1
footprint=1206
T 48800 44200 5 10 1 1 0 0 1
value=200k
}
N 52300 44800 52300 47100 4
N 52300 45800 51300 45800 4
N 51300 45000 51300 45800 4
N 49800 47100 52300 47100 4
C 51700 44100 1 0 0 gnd-1.sym
C 51600 45200 1 0 0 5V-plus-1.sym
C 50500 49500 1 180 0 5V-plus-1.sym
N 49400 44600 51300 44600 4
C 51900 42200 1 90 0 capacitor-1.sym
{
T 51200 42400 5 10 0 0 90 0 1
device=CAPACITOR
T 51000 42400 5 10 0 0 90 0 1
symversion=0.1
T 51900 42200 5 10 0 0 0 0 1
footprint=1206
T 51400 42400 5 10 1 1 90 0 1
refdes=C5
T 51800 42300 5 10 1 1 0 0 1
value=330nF
}
C 51600 41900 1 0 0 gnd-1.sym
C 50500 43000 1 0 0 resistor-2.sym
{
T 50900 43350 5 10 0 0 0 0 1
device=RESISTOR
T 50500 43000 5 10 0 0 270 0 1
footprint=1206
T 50700 43300 5 10 1 1 0 0 1
refdes=R5
T 50800 42700 5 10 1 1 0 0 1
value=200k
}
N 51400 43100 52900 43100 4
C 53300 42600 1 0 0 gnd-1.sym
C 53200 43700 1 0 0 5V-plus-1.sym
C 53900 44800 1 180 0 resistor-2.sym
{
T 53500 44450 5 10 0 0 180 0 1
device=RESISTOR
T 53900 44800 5 10 0 0 90 0 1
footprint=1206
T 53700 44500 5 10 1 1 180 0 1
refdes=R6
T 54100 44500 5 10 1 1 0 0 1
value=20k
}
N 52900 43500 52900 47400 4
N 52900 44700 53000 44700 4
N 54000 43300 54000 48000 4
{
T 53700 48100 5 10 1 1 0 0 1
netname=WEI
}
C 53900 45600 1 180 0 capacitor-1.sym
{
T 53700 44900 5 10 0 0 180 0 1
device=CAPACITOR
T 53700 45100 5 10 1 1 180 0 1
refdes=C4
T 53700 44700 5 10 0 0 180 0 1
symversion=0.1
T 53900 45600 5 10 0 0 90 0 1
footprint=1206
T 54700 45400 5 10 1 1 180 0 1
value=2.2nF
}
N 53900 43300 54000 43300 4
N 54000 45400 53900 45400 4
N 53900 44700 54000 44700 4
N 47200 43100 50500 43100 4
N 53000 45400 52900 45400 4
N 49800 47400 52900 47400 4
N 54000 48000 49800 48000 4
N 49800 47700 55000 47700 4
{
T 54600 47800 5 10 1 1 0 0 1
netname=REF
}
N 52900 46900 55000 46900 4
{
T 54700 47000 5 10 1 1 0 0 1
netname=WE
}
N 52300 46100 55000 46100 4
{
T 54700 46200 5 10 1 1 0 0 1
netname=CE
}
N 49800 49500 50300 49500 4
C 46400 43800 1 0 0 gnd-1.sym
C 46300 45000 1 270 0 capacitor-4.sym
{
T 47400 44800 5 10 0 0 270 0 1
device=POLARIZED_CAPACITOR
T 47000 44800 5 10 0 0 270 0 1
symversion=0.1
T 46300 45000 5 10 0 0 0 0 1
footprint=RCY200P
T 46800 44800 5 10 1 1 270 0 1
refdes=C2
T 45700 44200 5 10 1 1 0 0 1
value=2200uF
}
C 44200 44900 1 270 0 capacitor-4.sym
{
T 45300 44700 5 10 0 0 270 0 1
device=POLARIZED_CAPACITOR
T 44900 44700 5 10 0 0 270 0 1
symversion=0.1
T 44200 44900 5 10 0 0 0 0 1
footprint=1206
T 44700 44700 5 10 1 1 270 0 1
refdes=C1
T 43900 44100 5 10 1 1 0 0 1
value=1uF
}
C 44300 42800 1 0 0 gnd-1.sym
C 44500 43100 1 90 0 resistor-2.sym
{
T 44150 43500 5 10 0 0 90 0 1
device=RESISTOR
T 44500 43100 5 10 0 0 0 0 1
footprint=1206
T 44200 43300 5 10 1 1 90 0 1
refdes=R2
T 44600 43400 5 10 1 1 0 0 1
value=200k
}
N 44400 44000 45300 44000 4
N 45300 44000 45300 44500 4
N 43900 45000 45100 45000 4
N 46500 45000 45900 45000 4
C 44100 45000 1 180 0 5V-plus-1.sym
N 44400 44900 44400 45000 4
C 45000 45800 1 0 0 resistor-2.sym
{
T 45400 46150 5 10 0 0 0 0 1
device=RESISTOR
T 45000 45800 5 10 0 0 270 0 1
footprint=1206
T 45100 46100 5 10 1 1 0 0 1
refdes=R1
T 45400 45500 5 10 1 1 0 0 1
value=68
}
N 46500 45000 46500 45900 4
N 46500 45900 45900 45900 4
N 45000 45900 44400 45900 4
N 44400 45900 44400 45000 4
C 45000 46900 1 0 0 max4501.sym
{
T 44995 46395 5 10 0 1 0 0 1
footprint=SO8
T 45295 48295 5 10 1 1 0 0 1
refdes=S1
T 45795 48295 5 10 1 1 0 0 1
device=MAX4501
}
C 45200 47100 1 180 0 5V-plus-1.sym
C 46800 47400 1 0 0 gnd-1.sym
N 46600 48000 47000 48000 4
{
T 46800 48200 5 10 1 1 0 0 1
netname=WE
}
C 45000 48100 1 180 0 resistor-2.sym
{
T 44600 47750 5 10 0 0 180 0 1
device=RESISTOR
T 45000 48100 5 10 0 0 90 0 1
footprint=1206
T 44500 48400 5 10 1 1 180 0 1
refdes=R3
T 44500 47600 5 10 1 1 0 0 1
value=1k
}
N 44100 48000 43700 48000 4
{
T 43700 48200 5 10 1 1 0 0 1
netname=WEI
}
N 47600 44600 47600 46200 4
N 47200 43100 47200 46500 4
N 47200 46500 47600 46500 4
N 47600 47400 46600 47400 4
N 47600 44600 48500 44600 4
C 53500 48900 1 0 0 dual-opamp-1.sym
{
T 53700 51200 5 10 0 0 0 0 1
device=DUAL_OPAMP
T 54200 48800 5 10 1 1 0 0 1
refdes=U3
T 53700 50800 5 10 0 0 0 0 1
footprint=SO8
T 53700 51400 5 10 0 0 0 0 1
symversion=0.2
T 52900 48600 5 10 1 1 0 0 1
value=MCP6002
T 53500 48900 5 10 0 0 0 0 1
slot=2
}
N 53500 49100 53000 49100 4
{
T 53000 49200 5 10 1 1 0 0 1
netname=CE
}
N 53500 49500 52600 49500 4
{
T 53000 49600 5 10 1 1 0 0 1
netname=REF
}
C 53800 49700 1 0 0 5V-plus-1.sym
C 53900 48600 1 0 0 gnd-1.sym
N 54500 49300 55000 49300 4
{
T 54600 49500 5 10 1 1 0 0 1
netname=CED
}
C 51500 48900 1 0 0 dual-opamp-1.sym
{
T 51700 51200 5 10 0 0 0 0 1
device=DUAL_OPAMP
T 52200 48800 5 10 1 1 0 0 1
refdes=U3
T 51700 50800 5 10 0 0 0 0 1
footprint=SO8
T 51700 51400 5 10 0 0 0 0 1
symversion=0.2
}
N 51500 49100 50900 49100 4
{
T 50900 49200 5 10 1 1 0 0 1
netname=REFD
}
N 51500 49500 51500 50200 4
N 51500 50200 52600 50200 4
N 52600 50200 52600 49300 4
N 52600 49300 52500 49300 4
C 51800 49700 1 0 0 5V-plus-1.sym
C 51900 48600 1 0 0 gnd-1.sym
C 45100 44500 1 270 1 irlml6402.sym
{
T 45600 45100 5 10 0 0 90 2 1
device=PMOS_TRANSISTOR
T 45300 45100 5 10 1 1 180 2 1
refdes=Q1
T 46405 45095 5 10 1 1 180 2 1
value=IRLML6402
T 46362 44695 5 10 0 1 90 2 1
footprint=SOT23
}
N 46900 47700 46600 47700 4
