v 20130925 2
C 40000 40000 0 0 0 title-B.sym
C 48500 47100 1 270 1 irlml6402.sym
{
T 49000 47700 5 10 0 0 90 2 1
device=PMOS_TRANSISTOR
T 48500 47300 5 10 1 1 180 2 1
refdes=Q1
T 49405 47695 5 10 1 1 180 2 1
value=IRLML6402
T 49762 47295 5 10 0 1 90 2 1
footprint=SOT23
}
N 48500 47600 47400 47600 4
{
T 47400 47700 5 10 1 1 0 0 1
netname=5V
}
N 49300 47600 51000 47600 4
N 48700 46300 48700 47100 4
{
T 48800 46500 5 10 1 1 0 0 1
netname=PWM
}
C 50100 46500 1 90 0 diode-1.sym
{
T 49500 46900 5 10 0 0 90 0 1
device=DIODE
T 49600 46800 5 10 1 1 90 0 1
refdes=D1
T 50100 46500 5 10 0 0 0 0 1
footprint=DO214
T 50100 46500 5 10 1 1 0 0 1
value=SS12
}
N 49900 47400 49900 47600 4
C 49800 46200 1 0 0 gnd-1.sym
C 50800 46600 1 0 0 dc_motor-1.sym
{
T 51200 47600 5 10 0 0 0 0 1
device=DC_MOTOR
T 51300 47200 5 10 1 1 0 0 1
refdes=M1
}
C 50900 46200 1 0 0 gnd-1.sym
N 51000 46500 51000 46600 4
C 47900 46700 1 90 0 resistor-2.sym
{
T 47550 47100 5 10 0 0 90 0 1
device=RESISTOR
T 47600 46900 5 10 1 1 90 0 1
refdes=R1
T 47900 46700 5 10 0 0 0 0 1
footprint=1206
T 48000 46800 5 10 1 1 0 0 1
value=30k
}
N 47800 46700 48700 46700 4
